%YAML 1.1
%TAG !u! tag:unity3d.com,2011:
--- !u!1045 &1
EditorBuildSettings:
  m_ObjectHideFlags: 0
  serializedVersion: 2
  m_Scenes:
  - enabled: 1
    path: Assets/Scenes/MainMenu.unity
    guid: 1b3eb4c00d190034dbac1a0dcecf603b
  - enabled: 1
    path: Assets/Scenes/MainGame.unity
    guid: 119c3a3216b3dc844bcc112bcec5671e
  - enabled: 1
    path: Assets/Scenes/GameOver.unity
    guid: d0a18a71d2c288e47a1cca1f1cf72ce4
